Date,Open,High,Low,Close,Volume,Adj Close
3/31/2015,11.38,11.4,11.22,11.32,52188800,11.32
3/30/2015,11.04,11.34,11.02,11.16,35670100,11.16
3/27/2015,11.04,11.1,10.9,11.08,52494900,11.08
3/26/2015,11.4,11.48,11.08,11.28,41619700,11.28
3/25/2015,11.46,11.7,11.4,11.52,44572600,11.52
3/24/2015,11.2,11.4,11.02,11.36,34331300,11.36
3/23/2015,10.84,11.2,10.84,11.18,24747700,11.18
3/20/2015,11.08,11.08,10.76,10.86,52790000,10.86
3/19/2015,11,11.12,10.82,11.02,34431900,11.02
3/18/2015,10.86,11.1,10.84,11.02,36626900,11.02
3/17/2015,10.98,11,10.76,10.84,35472500,10.84
3/16/2015,10.76,11.08,10.64,10.9,40819300,10.9
3/13/2015,11.28,11.28,10.8,10.94,82879300,10.94
3/12/2015,11.18,11.56,11.18,11.42,26468500,11.42
3/11/2015,11.5,11.6,11.24,11.3,30846900,11.3
3/10/2015,12,12,11.52,11.64,40258700,11.64
3/9/2015,12.2,12.24,11.82,12,48816500,12
3/6/2015,12,12.3,11.88,12.24,80646200,12.24
3/5/2015,12.08,12.08,11.9,11.96,31574900,11.96
3/4/2015,11.98,12.18,11.9,11.92,39622400,11.92
3/3/2015,12,12.06,11.8,11.88,24326500,11.88
3/2/2015,11.96,12.2,11.94,12.1,23235100,12.1
2/27/2015,11.9,12.16,11.84,11.96,27107500,11.96
2/26/2015,11.8,12,11.78,11.9,13585100,11.9
2/25/2015,11.78,12,11.78,11.86,25089800,11.86
2/24/2015,11.86,11.98,11.74,11.94,21860900,11.94
2/23/2015,11.56,12.12,11.52,12,34189200,12
2/20/2015,11.88,11.88,11.88,11.88,0,11.88
2/19/2015,11.88,11.88,11.88,11.88,0,11.88
2/18/2015,11.84,12,11.84,11.88,13176900,11.88
2/17/2015,12.1,12.1,11.88,11.94,12640400,11.94
2/16/2015,12.12,12.16,11.88,11.98,27548500,11.98
2/13/2015,12.36,12.36,12.02,12.12,41064600,12.12
2/12/2015,11.92,12.3,11.92,12.26,53672700,12.26
2/11/2015,11.9,12.22,11.84,11.98,55206100,11.98
2/10/2015,11.9,11.92,11.64,11.86,41291800,11.86
2/9/2015,11.5,11.96,11.38,11.86,47897200,11.86
2/6/2015,11.56,11.78,11.48,11.5,42073500,11.5
2/5/2015,11.8,11.8,11.48,11.58,59612600,11.58
2/4/2015,11.18,11.66,11.06,11.46,158099200,11.46
2/3/2015,11,11.06,10.74,10.92,151966300,10.92
2/2/2015,10.24,10.24,10.02,10.18,38498200,10.18
1/30/2015,10.08,10.16,9.96,10.04,33462300,10.04
1/29/2015,10.2,10.28,10,10.04,59669800,10.04
1/28/2015,10.4,10.5,10.26,10.32,42201300,10.32
1/27/2015,10.62,10.66,10.42,10.52,28236000,10.52
1/26/2015,10.5,10.74,10.44,10.6,23816600,10.6
1/23/2015,10.44,10.58,10.36,10.54,47272300,10.54
1/22/2015,10.4,10.5,10.24,10.3,31503500,10.3
1/21/2015,10.28,10.54,10.28,10.38,24973200,10.38
1/20/2015,10.3,10.42,10.2,10.34,16874100,10.34
1/19/2015,10.3,10.48,10.26,10.3,15456000,10.3
1/16/2015,10.62,10.62,10.32,10.36,43472600,10.36
1/15/2015,10.68,10.78,10.56,10.62,22973500,10.62
1/14/2015,10.68,10.86,10.66,10.74,41495000,10.74
1/13/2015,10.8,10.8,10.56,10.66,23511400,10.66
1/12/2015,10.72,10.8,10.6,10.76,24148100,10.76
1/9/2015,10.9,11.08,10.62,10.76,54806400,10.76
1/8/2015,10.6,11,10.56,10.84,75549800,10.84
1/7/2015,10.26,10.68,10.2,10.42,60627400,10.42
1/6/2015,9.98,10.14,9.9,10.08,23258400,10.08
1/5/2015,10.08,10.18,10.02,10.06,30148400,10.06
1/2/2015,10.2,10.26,10.12,10.22,11729400,10.22
1/1/2015,10.2,10.2,10.2,10.2,0,10.2
12/31/2014,10.1,10.26,10.02,10.2,13775900,10.2
12/30/2014,10.28,10.36,10.16,10.2,16128700,10.2
12/29/2014,10.16,10.32,10.14,10.18,19942400,10.18
12/26/2014,10.14,10.14,10.14,10.14,0,10.14
12/25/2014,10.14,10.14,10.14,10.14,0,10.14
12/24/2014,9.96,10.16,9.96,10.14,12499500,10.14
12/23/2014,10,10.18,9.97,10.04,24660100,10.04
12/22/2014,10.1,10.2,9.93,10.06,26696700,10.06
12/19/2014,10.16,10.18,10,10.16,60754000,10.16
12/18/2014,9.94,10.04,9.68,9.91,73273600,9.91
12/17/2014,10.32,10.32,9.78,9.93,85027300,9.93
12/16/2014,10.64,10.64,10.32,10.36,35830500,10.36
12/15/2014,10.42,10.6,10.42,10.56,13823500,10.56
12/12/2014,10.78,10.78,10.46,10.6,18990600,10.6
12/11/2014,10.52,10.72,10.38,10.64,23167800,10.64
12/10/2014,10.7,10.8,10.48,10.76,26636500,10.76
12/9/2014,11,11,10.58,10.66,34437600,10.66
12/8/2014,10.54,10.92,10.46,10.74,42443900,10.74
12/5/2014,10.5,10.66,10.34,10.62,45027600,10.62
12/4/2014,10.3,10.66,10.3,10.5,40613700,10.5
12/3/2014,10.64,10.66,10.24,10.44,47672200,10.44
12/2/2014,10.7,10.7,10.52,10.64,31913000,10.64
12/1/2014,10.94,10.94,10.5,10.58,34879100,10.58
11/28/2014,10.76,10.9,10.72,10.88,19519000,10.88
11/27/2014,10.84,10.9,10.72,10.78,17854200,10.78
11/26/2014,10.68,10.8,10.62,10.8,26318000,10.8
11/25/2014,10.74,10.8,10.6,10.68,49481400,10.68
11/24/2014,10.66,10.84,10.6,10.66,35237900,10.66
11/21/2014,10.36,10.6,10.34,10.54,58257100,10.54
11/20/2014,10.52,10.52,10.32,10.36,25778100,10.36
11/19/2014,10.4,10.6,10.34,10.46,28969800,10.46
11/18/2014,10.78,10.78,10.42,10.46,34009900,10.4
11/17/2014,11,11,10.6,10.68,36891700,10.619
11/14/2014,10.8,10.9,10.68,10.84,38724100,10.778
11/13/2014,10.7,10.82,10.66,10.68,31370400,10.619
11/12/2014,10.9,10.9,10.6,10.76,35500500,10.698
11/11/2014,10.66,10.96,10.62,10.86,51858100,10.798
11/10/2014,10.5,10.78,10.5,10.52,79380400,10.46
11/7/2014,10.22,10.46,10.12,10.26,146855900,10.201
11/6/2014,11.46,11.52,10.62,10.78,88852800,10.718
11/5/2014,11.42,11.44,11.32,11.36,17245500,11.295
11/4/2014,11.54,11.54,11.3,11.4,35808900,11.335
11/3/2014,11.6,11.62,11.32,11.4,20583000,11.335
10/31/2014,11.42,11.52,11.32,11.42,31137500,11.354
10/30/2014,11.48,11.58,11.34,11.48,21566700,11.414
10/29/2014,11.56,11.56,11.4,11.5,27115000,11.434
10/28/2014,11.28,11.58,11.28,11.46,26334500,11.394
10/27/2014,11.24,11.3,11.06,11.26,19751300,11.195
10/24/2014,11.26,11.34,11.12,11.22,13932400,11.156
10/23/2014,11.2,11.28,11.14,11.22,13331600,11.156
10/22/2014,11.34,11.36,11.2,11.3,27549000,11.235
10/21/2014,11.06,11.28,11,11.14,29079700,11.076
10/20/2014,11,11.04,10.84,10.98,30792400,10.917
10/17/2014,10.68,10.88,10.64,10.82,67334900,10.758
10/16/2014,10.78,10.96,10.74,10.84,39851200,10.778
10/15/2014,10.9,11.14,10.66,11.1,54109100,11.036
10/14/2014,10.5,11.02,10.36,10.76,69409600,10.698
10/13/2014,11.04,11.08,10.8,10.92,64104300,10.857
10/10/2014,11.68,11.68,11.12,11.28,86965300,11.215
10/9/2014,11.96,12.08,11.8,11.88,20160600,11.812
10/8/2014,11.92,12,11.82,11.92,22265700,11.852
10/7/2014,11.62,12.12,11.6,12.04,52686300,11.971
10/6/2014,11.7,11.84,11.6,11.78,45931900,11.712
10/3/2014,11.5,11.8,11.06,11.7,97700300,11.633
10/2/2014,11.56,11.56,11.56,11.56,0,11.494
10/1/2014,11.56,11.56,11.56,11.56,0,11.494
9/30/2014,11.66,11.66,11.48,11.56,44616800,11.494
9/29/2014,11.78,11.78,11.42,11.74,43882900,11.673
9/26/2014,11.84,12.02,11.82,11.84,24496700,11.772
9/25/2014,12,12.08,11.82,11.88,44316400,11.812
9/24/2014,11.9,12,11.62,11.82,43582600,11.752
9/23/2014,11.9,12.2,11.88,11.98,27142200,11.911
9/22/2014,12.04,12.08,11.86,11.94,25101800,11.872
9/19/2014,12.12,12.2,11.88,12.08,64803300,12.011
9/18/2014,11.96,12.16,11.9,11.98,37153800,11.911
9/17/2014,11.88,12.12,11.84,12.02,54395600,11.951
9/16/2014,11.82,12.2,11.58,11.6,41769900,11.533
9/15/2014,12.28,12.3,11.92,11.94,29217500,11.872
9/12/2014,12.04,12.28,12.02,12.24,44837100,12.17
9/11/2014,12.46,12.48,11.8,11.88,58005000,11.812
9/10/2014,12.38,12.5,12.24,12.4,35899300,12.329
9/9/2014,12.62,12.62,12.62,12.62,0,12.548
9/8/2014,12.2,12.7,12.2,12.62,34621200,12.548
9/5/2014,12.26,12.34,12.06,12.32,44970900,12.249
9/4/2014,12.34,12.44,12.2,12.26,29472500,12.19
9/3/2014,12.3,12.32,12.04,12.26,24127400,12.19
9/2/2014,12.16,12.34,11.96,12.14,32240300,12.07
9/1/2014,11.98,12.3,11.84,12.26,37952600,12.19
8/29/2014,11.52,11.94,11.52,11.84,27746000,11.772
8/28/2014,11.86,11.9,11.56,11.6,28650800,11.533
8/27/2014,11.76,11.9,11.68,11.7,23196300,11.633
8/26/2014,11.68,11.8,11.62,11.66,28281600,11.593
8/25/2014,11.62,11.82,11.62,11.68,23652100,11.613
8/22/2014,11.98,12,11.76,11.8,25757600,11.732
8/21/2014,11.5,11.88,11.48,11.82,47671300,11.752
8/20/2014,12.08,12.1,11.6,11.66,53074800,11.593
8/19/2014,11.9,12.1,11.78,12,66030800,11.931
8/18/2014,11.86,11.98,11.64,11.68,51656000,11.613
8/15/2014,11.44,11.64,11.32,11.56,46594300,11.494
8/14/2014,11.64,11.66,11.16,11.26,45176300,11.195
8/13/2014,11.38,11.44,11.16,11.42,57420200,11.354
8/12/2014,11.02,11.58,11.02,11.48,49898200,11.414
8/11/2014,11.02,11.32,11,11.08,33252700,11.016
8/8/2014,10.94,11.06,10.82,11.04,31111600,10.977
8/7/2014,10.7,11,10.7,10.96,32752600,10.897
8/6/2014,10.68,10.96,10.62,10.84,29517700,10.778
8/5/2014,10.6,10.84,10.58,10.78,20278200,10.718
8/4/2014,10.62,10.7,10.58,10.64,14732300,10.579
8/1/2014,10.68,10.74,10.58,10.66,21017200,10.599
7/31/2014,10.78,10.78,10.58,10.66,33443100,10.599
7/30/2014,10.52,10.86,10.5,10.54,41930400,10.48
7/29/2014,10.74,10.78,10.68,10.78,14795500,10.718
7/28/2014,10.86,10.9,10.76,10.8,14617500,10.738
7/25/2014,10.8,10.84,10.7,10.82,22103900,10.758
7/24/2014,10.54,10.86,10.52,10.8,33687200,10.738
7/23/2014,10.68,10.76,10.48,10.52,42194400,10.46
7/22/2014,10.78,10.92,10.68,10.72,37269400,10.659
7/21/2014,10.9,10.98,10.82,10.88,16580900,10.818
7/18/2014,10.9,11.04,10.8,11,28185800,10.937
7/17/2014,11,11.12,10.88,10.94,26693100,10.877
7/16/2014,11.14,11.14,10.94,10.96,22550100,10.897
7/15/2014,10.9,11.04,10.88,11,32145000,10.937
7/14/2014,10.8,10.94,10.74,10.9,30158400,10.837
7/11/2014,10.58,10.84,10.52,10.8,35346200,10.738
7/10/2014,10.6,10.6,10.52,10.58,25259300,10.519
7/9/2014,10.56,10.74,10.38,10.5,50996000,10.44
7/8/2014,10.74,10.86,10.64,10.76,61628300,10.698
7/7/2014,10.38,10.52,10.38,10.46,12975800,10.4
7/4/2014,10.4,10.46,10.28,10.36,22368200,10.301
7/3/2014,10.4,10.66,10.34,10.54,30260900,10.301
7/2/2014,10.52,10.64,10.48,10.5,31322900,10.261
7/1/2014,10.58,10.58,10.58,10.58,0,10.34
6/30/2014,10.36,10.6,10.3,10.58,36432800,10.34
6/27/2014,10.16,10.38,10.14,10.36,20578900,10.125
6/26/2014,10.32,10.4,10.18,10.3,27490900,10.066
6/25/2014,10.32,10.42,10.2,10.4,25463600,10.164
6/24/2014,10.3,10.3,10.12,10.26,35583300,10.027
6/23/2014,10.08,10.4,10.04,10.14,44189800,9.91
6/20/2014,10.08,10.24,10.02,10.22,29103600,9.988
6/19/2014,10.18,10.22,10.04,10.14,44857100,9.91
6/18/2014,10,10,9.93,9.96,25345700,9.734
6/17/2014,9.95,10.04,9.88,10.04,32957400,9.812
6/16/2014,9.85,10.1,9.58,10,46993100,9.773
6/13/2014,9.78,9.97,9.64,9.9,31263300,9.675
6/12/2014,9.58,9.8,9.54,9.73,21652700,9.509
6/11/2014,9.55,9.66,9.55,9.63,30603800,9.411
6/10/2014,9.67,9.67,9.54,9.63,33927700,9.411
6/9/2014,9.48,9.62,9.48,9.61,20731400,9.392
6/6/2014,9.65,9.68,9.44,9.49,73758200,9.274
6/5/2014,9.75,9.78,9.57,9.59,37012400,9.372
6/4/2014,9.8,9.8,9.66,9.75,30423600,9.529
6/3/2014,9.68,9.98,9.65,9.9,51286800,9.675
6/2/2014,9.6,9.6,9.6,9.6,0,9.382
5/30/2014,9.63,9.72,9.55,9.6,49997700,9.382
5/29/2014,9.64,9.9,9.57,9.6,51130400,9.382
5/28/2014,9.87,9.94,9.81,9.84,57977900,9.616
5/27/2014,9.55,9.83,9.55,9.74,50098100,9.519
5/26/2014,9.5,9.66,9.43,9.61,37029100,9.392
5/23/2014,9.45,9.48,9.36,9.48,37157800,9.265
5/22/2014,9.5,9.5,9.26,9.47,68013300,9.255
5/21/2014,9.14,9.47,9.09,9.44,66731100,9.226
5/20/2014,8.9,9.28,8.9,9.13,56854400,8.923
5/19/2014,8.95,8.99,8.88,8.95,21880400,8.747
5/16/2014,8.86,9,8.7,8.99,31217600,8.786
5/15/2014,8.67,8.9,8.64,8.89,30633800,8.688
5/14/2014,8.71,8.73,8.53,8.69,22565100,8.493
5/13/2014,8.57,8.83,8.52,8.61,39826500,8.414
5/12/2014,8.37,8.5,8.17,8.43,35095700,8.239
5/9/2014,8.34,8.42,8.18,8.35,19522600,8.16
5/8/2014,8.4,8.47,8.3,8.34,41957200,8.151
5/7/2014,8.51,8.59,8.2,8.49,64666600,8.297
5/6/2014,8.73,8.73,8.73,8.73,0,8.532
5/5/2014,8.88,8.94,8.72,8.73,17187900,8.532
5/2/2014,8.95,8.95,8.81,8.89,20772200,8.688
5/1/2014,8.82,8.82,8.82,8.82,0,8.62
4/30/2014,8.85,9.05,8.79,8.82,44555400,8.62
4/29/2014,8.68,8.87,8.59,8.83,33847900,8.629
4/28/2014,8.72,8.88,8.65,8.66,23696200,8.463
4/25/2014,8.79,8.94,8.75,8.8,40727200,8.6
4/24/2014,8.89,8.94,8.74,8.8,29431500,8.6
4/23/2014,9.14,9.14,8.83,8.86,47022600,8.659
4/22/2014,9.18,9.27,8.9,8.97,46326000,8.766
4/21/2014,9.28,9.28,9.28,9.28,0,9.069
4/18/2014,9.28,9.28,9.28,9.28,0,9.069
4/17/2014,9.48,9.51,9.22,9.28,30603300,9.069
4/16/2014,9.3,9.38,9.15,9.33,34606800,9.118
4/15/2014,9.47,9.47,9.1,9.14,51274300,8.932
4/14/2014,9.38,9.47,9.28,9.43,31080600,9.216
4/11/2014,9.39,9.53,9.3,9.48,58797200,9.265
4/10/2014,9.02,9.48,8.99,9.4,91083800,9.186
4/9/2014,8.95,9.03,8.89,8.96,30397900,8.756
4/8/2014,8.96,8.99,8.81,8.93,42408200,8.727
4/7/2014,8.9,9.09,8.83,8.99,53816200,8.786
4/4/2014,8.89,8.98,8.8,8.91,28369700,8.708
4/3/2014,8.93,9.05,8.92,9,61153400,8.796
4/2/2014,9,9,8.77,8.84,32461600,8.639
4/1/2014,8.55,8.86,8.53,8.84,68521800,8.639
